* 5377517 was nightglyde, on Fri, 16 Oct 2015 00:08:10 +0800: updating booked hours
* ff39c33 was Mathias Gebauer, on Thu, 15 Oct 2015 21:06:58 +0800: Updated hours
*   5bfbc97 was Willium, on Thu, 15 Oct 2015 19:23:03 +0800: merging things
|\  
| * 6ea3ee7 was nightglyde, on Thu, 15 Oct 2015 16:38:09 +0800: fixing floating point numbers
* | 437089c was Willium, on Thu, 15 Oct 2015 19:20:56 +0800: server things beginning to work maybe
|/  
* e8dddb5 was Mathias Gebauer, on Thu, 15 Oct 2015 16:10:52 +0800: Made like button smaller
* 31e6e6d was Willium, on Thu, 15 Oct 2015 15:32:36 +0800: start fixed, video implemented
* 91b11c9 was notna888, on Thu, 15 Oct 2015 15:21:25 +0800: Added help video, not using it anywhere yet
* ff63e33 was Willium, on Thu, 15 Oct 2015 15:02:04 +0800: results is good now
*   ee7d365 was Willium, on Thu, 15 Oct 2015 13:36:19 +0800: Merge branch 'master' of https://bitbucket.org/notna888/the-special-k-project
|\  
| * 4d91cfa was Mathias Gebauer, on Thu, 15 Oct 2015 12:04:21 +0800: Resized help instruction PNG and centred
* | 0f547a9 was Willium, on Thu, 15 Oct 2015 12:11:02 +0800: OKAY BITBUCKET IS WORK AGAIN FINALLY
|/  
* 7614dd4 was Mathias Gebauer, on Thu, 15 Oct 2015 11:51:46 +0800: Resized help instruction PNG
* 0b68a30 was Mathias Gebauer, on Thu, 15 Oct 2015 11:47:36 +0800: Resized help instruction PNG
* f0b33bd was Mathias Gebauer, on Thu, 15 Oct 2015 11:42:15 +0800: Resized help instruction PNG
* 0e151c3 was Mathias Gebauer, on Thu, 15 Oct 2015 11:38:20 +0800: Updated booked hours
* 47cd12a was Mathias Gebauer, on Thu, 15 Oct 2015 11:13:50 +0800: TRYING TO FIX GIT FFS
* ae1ea74 was Anton Savill, on Thu, 15 Oct 2015 07:23:08 +0800: Added two manifest files, hopefully should work but I have no idea if it is
* 9b10bd4 was William Owers, on Thu, 15 Oct 2015 00:55:41 +0800: typo and comments
* a4ce2dd was William Owers, on Thu, 15 Oct 2015 00:55:12 +0800: fixed a silly thing
* 34efc47 was William Owers, on Thu, 15 Oct 2015 00:52:07 +0800: image button does things but its messy
* 33aa80f was William Owers, on Wed, 14 Oct 2015 23:56:59 +0800: Okay now i merged the random stuff that i broke
*   a33a10a was William Owers, on Wed, 14 Oct 2015 23:51:22 +0800: fixed complete.js merge
|\  
| * 40757ca was Mathias Gebauer, on Wed, 14 Oct 2015 22:42:52 +0800: Updated Booked Hours
| * 20cb2cd was Mathias Gebauer, on Wed, 14 Oct 2015 22:26:53 +0800: Fixed that bug that on line 450 complete.js
| * 5044b2a was Mathias Gebauer, on Wed, 14 Oct 2015 21:20:34 +0800: Updated Booked Hours
* | 9e3dfa0 was William Owers, on Wed, 14 Oct 2015 23:34:47 +0800: this should work pls T_T
|/  
* 6e15b6a was William Owers, on Wed, 14 Oct 2015 16:33:06 +0800: fixed a bug i left for testing (lol)
* a2367de was William Owers, on Wed, 14 Oct 2015 16:21:04 +0800: added transition effect to thumbnails
* 3b9270e was William Owers, on Wed, 14 Oct 2015 11:57:47 +0800: results now works fine again
*   c35241f was Willium, on Wed, 14 Oct 2015 10:21:59 +0800: Merge branch 'master' of https://bitbucket.org/notna888/the-special-k-project
|\  
| * cdfe5bb was Anton Savill, on Tue, 13 Oct 2015 22:52:46 +0800: Woops, forgot to save it, that was a badly commented one
| * 3087403 was Anton Savill, on Tue, 13 Oct 2015 22:51:41 +0800: Results screen ready for use. Nothing else needs to be done to it I think
| * 9337c2d was Anton Savill, on Tue, 13 Oct 2015 22:42:43 +0800: Making a commit so I can roll back if I mess up cleaning up the code
| * 86dbdcd was Anton Savill, on Tue, 13 Oct 2015 22:06:37 +0800: Broke things, then fixed them again
| * 421f338 was Anton Savill, on Tue, 13 Oct 2015 21:03:28 +0800: should be now using the results from the actual quiz
| * de12a2e was Anton Savill, on Tue, 13 Oct 2015 20:42:46 +0800: removed my messy, but working html and js, no longer needed
| * 629c1fe was nightglyde, on Tue, 13 Oct 2015 17:58:23 +0800: wrote test for results.js. need to fix floating point numbers!
| * 23825a0 was Mathias Gebauer, on Tue, 13 Oct 2015 17:41:48 +0800: Update HTML/CSS Responsive Design
| *   f3408a9 was Reece Como, on Tue, 13 Oct 2015 16:01:25 +0800: Merge branch 'master' of https://bitbucket.org/notna888/the-special-k-project
| |\  
| * | 3d6380f was Reece Como, on Tue, 13 Oct 2015 16:00:47 +0800: dir instructions
| * | 2143848 was Reece Como, on Mon, 12 Oct 2015 13:43:32 +0800: group hours minutes etc
* | | 68263a5 was Willium, on Wed, 14 Oct 2015 10:21:42 +0800: coments and things
| |/  
|/|   
* | f33badd was Mathias Gebauer, on Tue, 13 Oct 2015 10:50:41 +0800: Updated booked hours
* | 2235179 was nightglyde, on Mon, 12 Oct 2015 23:09:27 +0800: wrote tests for thumbnail.js, util.js and video.js. in testing folder, made setup.js to set up mock objects for testing. also modified paths for language based asset paths
* | 387d80b was Mathias Gebauer, on Mon, 12 Oct 2015 17:10:45 +0800: Changed font to black for help instructions
* | e37b1bb was Mathias Gebauer, on Mon, 12 Oct 2015 16:59:46 +0800: Help instructions in asset folder
* | f532a05 was Mathias Gebauer, on Mon, 12 Oct 2015 16:24:06 +0800: Improved HTML(Borders and layout proportions)
* | c07b18a was William Owers, on Mon, 12 Oct 2015 15:56:00 +0800: more changes and stuff' like better gradients and stuff
* | 3fd8275 was William Owers, on Mon, 12 Oct 2015 12:02:30 +0800: fixed results with new draft results: r2.html
|/  
* 28e8b2f was William Owers, on Sun, 11 Oct 2015 18:06:10 +0800: better loading bar, happy and sad face, fixed results page
* 2db05eb was William Owers, on Sun, 11 Oct 2015 15:20:59 +0800: a bunch of chagnes like borders, loading bars, progress bars, etc
*   8cc4e56 was William Owers, on Sun, 11 Oct 2015 09:33:57 +0800: Merge branch 'master' of https://bitbucket.org/notna888/the-special-k-project
|\  
| * 4398daf was Anton Savill, on Sun, 11 Oct 2015 03:52:28 +0800: got it working, need to be able to dynamically resize the thumbnails but after that we're pretty good
| * ec93e3e was Anton Savill, on Sun, 11 Oct 2015 01:47:10 +0800: making this commit so I can roll back if my abandonment of canvases doesn't work out
| * 8f25d6e was Mathias Gebauer, on Sat, 10 Oct 2015 19:55:25 +0800: Booked Hours
| * 8e5d1dc was Wilsen Lie, on Sat, 10 Oct 2015 19:28:54 +0800: week 10
| * 33bf80d was nightglyde, on Sat, 10 Oct 2015 18:04:42 +0800: added my booked hours. also fixed thumbnail size on Release version of the code, and fixed start.html so that it opens index.html
| * 79d48f1 was Anton Savill, on Sat, 10 Oct 2015 15:11:49 +0800: Added my hours and stuff
* | 32b5b05 was William Owers, on Sun, 11 Oct 2015 09:33:31 +0800: pushed hours
|/  
* 6db2b90 was William Owers, on Fri, 9 Oct 2015 12:37:43 +0800: fixed the canvases
* 6f2984d was nightglyde, on Fri, 9 Oct 2015 12:14:16 +0800: fixed creation of thumbnail objects in main.js
* d9c5c44 was nightglyde, on Fri, 9 Oct 2015 11:56:59 +0800: fixed paths to video and thumbnail assets for main.html
* 7c8a366 was William Owers, on Fri, 9 Oct 2015 11:27:45 +0800: file structure changes
* 80b4880 was Anton Savill, on Thu, 8 Oct 2015 00:27:28 +0800: Added a 'messy' results page, it's working but horribly inefficient, not working results page added, need to iron out the bug in it, modified css to move things to the right place hopefully
* 1bc0808 was Mathias Gebauer, on Wed, 7 Oct 2015 09:22:53 +0800: Minutes Wk10
* 07215a8 was William Owers, on Tue, 6 Oct 2015 17:51:25 +0800: code revision
* 80e78f1 was nightglyde, on Tue, 6 Oct 2015 17:44:15 +0800: pushing my changes, so that will can move stuff. tests are definitely broken. other stuff might be broken
* 91157c7 was William Owers, on Sun, 4 Oct 2015 20:55:35 +0800: week 9s timesheets
* edb8072 was Wilsen Lie, on Fri, 2 Oct 2015 00:50:56 +0800: With language selector
* b7032e5 was Wilsen Lie, on Fri, 2 Oct 2015 00:48:30 +0800: With language selector
*   80fcf9b was Wilsen Lie, on Thu, 1 Oct 2015 02:36:58 +0800: Merge branch 'master' of https://bitbucket.org/notna888/the-special-k-project
|\  
| * d44fa89 was Anton Savill, on Mon, 28 Sep 2015 13:05:32 +0800: Made the thumbnails resize to canvas size, added opinion poll thing at the end
| *   787239b was nightglyde, on Sun, 27 Sep 2015 15:28:09 +0800: Merge branch 'master' of https://bitbucket.org/notna888/the-special-k-project I think merging is because someone pushed their booked hours while I was doing mine...
| |\  
| | * aab6db7 was William Owers, on Sun, 27 Sep 2015 15:23:27 +0800: added my hours
| * | 960e62f was nightglyde, on Sun, 27 Sep 2015 15:27:11 +0800: adding my booked hours
| |/  
| * 8fc30ff was Anton Savill, on Sat, 26 Sep 2015 17:47:16 +0800: Added my hours for this week and one day of the next
| * 7bd2834 was Anton Savill, on Sat, 26 Sep 2015 17:36:19 +0800: Uploading the work I've done on results screen, it actually works now, kinda, not very well... comments everywhere saying what needs to be changed
| * 5b524ab was Anton Savill, on Sat, 26 Sep 2015 13:54:19 +0800: added css gradient code back in because I fixed the bug I had with it, left background image workaround as a backup
| * ea7136c was Mathias Gebauer, on Sat, 26 Sep 2015 12:15:41 +0800: Fixed GUI bugs (removed iFrame and Help botton is back and thumbnail 5 is in proper position)
| * 24e707c was Mathias Gebauer, on Sat, 26 Sep 2015 11:36:30 +0800: Update Booked Hours
| * 998c643 was Mathias Gebauer, on Thu, 24 Sep 2015 17:41:26 +0800: Added Client meeting minutes
| * db84e79 was Anton Savill, on Wed, 23 Sep 2015 15:28:24 +0800: removed emacs temp file, sorry
| * cba6b11 was Anton Savill, on Wed, 23 Sep 2015 15:27:13 +0800: Added the results screen I've been working on, still not working but I feel I'm just missing something super simple
| * db2e710 was Mathias Gebauer, on Tue, 22 Sep 2015 17:46:01 +0800: Group Minuteswk 9
| * 0c4623f was nightglyde, on Tue, 22 Sep 2015 15:26:10 +0800: results calculation, and some other adjustments to the survey js
| * 40b70cf was Mathias Gebauer, on Tue, 22 Sep 2015 10:32:25 +0800: Updated booked hours
| * 3f1e039 was Mathias Gebauer, on Mon, 21 Sep 2015 16:24:24 +0800: Added mentor minutes and first stage of compiling JS with HTML/CSS (currently not working 100%)
| * db4392a was Reece Como, on Sun, 20 Sep 2015 21:46:26 +0800: timesheets wk 8 + lauren corr.
| * 8e296a9 was William Owers, on Sun, 20 Sep 2015 15:18:12 +0800: added myhours (lol)
| * d3d111c was Mathias Gebauer, on Sun, 20 Sep 2015 13:48:55 +0800: changes
| * c15c9d0 was Mathias Gebauer, on Sun, 20 Sep 2015 13:34:10 +0800: Finished HTML/CSS: All elements should be responsive and correctly positioned now for iPad
| * fecdf3a was notna888, on Sun, 20 Sep 2015 03:11:44 +0800: added my hours
* | 918b0d8 was Wilsen Lie, on Sun, 27 Sep 2015 23:01:11 +0800: week 9
|/  
* 9d46c23 was Wilsen Lie, on Sat, 19 Sep 2015 17:00:01 +0800: week 8 X
* 0d9d90c was nightglyde, on Sat, 19 Sep 2015 16:51:58 +0800: adding my booked hours
* 5622cb2 was Mathias Gebauer, on Thu, 17 Sep 2015 10:42:58 +0800: Added Group Minutes and updated booked hours
* de200d1 was William Owers, on Tue, 15 Sep 2015 11:11:25 +0800: updated start.html
* f9f16d7 was Reece Como, on Sun, 13 Sep 2015 21:50:57 +0800: timesheets wk 7
* db52562 was nightglyde, on Sun, 13 Sep 2015 01:05:01 +0800: adding my booked hours
* 82b8e2b was Wilsen Lie, on Sun, 13 Sep 2015 00:56:46 +0800: week 7
*   aec8daa was Mathias Gebauer, on Sat, 12 Sep 2015 17:32:13 +0800: HTML/CSS Update: Repositioning elements repective to screen size (more to do on this later)
|\  
| * eba8fc9 was Anton Savill, on Sat, 12 Sep 2015 15:38:49 +0800: Added my weekly hours
* | c050e1a was Mathias Gebauer, on Sat, 12 Sep 2015 17:28:53 +0800: HTML/CSS Update: Repositioning elements repective to screen size (more to do on this later)
|/  
* cd5982b was Mathias Gebauer, on Sat, 12 Sep 2015 14:17:28 +0800: Updated Booked Hours - Mathias
* 176f140 was William Owers, on Sat, 12 Sep 2015 10:10:22 +0800: added my minutes
* 0a5f20b was Mathias Gebauer, on Wed, 9 Sep 2015 10:31:13 +0800: Added group meeting minutes for week 7
* 44787d9 was nightglyde, on Wed, 9 Sep 2015 02:56:57 +0800: split main.js into separate files
* 3809fca was nightglyde, on Tue, 8 Sep 2015 00:20:57 +0800: did work on main.js. re-arranged, more suited to testing, and now uses the correct order of videos
* 0d7241c was Willium, on Mon, 7 Sep 2015 14:13:12 +0800: now there is a ghetto login screen thing
* 8d3e673 was Mathias Gebauer, on Sun, 6 Sep 2015 19:29:13 +0800: Worked on HTML/CSS
* 5aacae4 was Mathias Gebauer, on Sat, 5 Sep 2015 17:56:25 +0800: Update Minutes and Add DelB
* d493491 was Will Owers, on Sat, 5 Sep 2015 16:33:55 +0800: added my hours
* c9bb517 was nightglyde, on Sat, 5 Sep 2015 16:19:56 +0800: added my hours
* 9767981 was notna888, on Sat, 5 Sep 2015 15:07:17 +0800: Added my hours
* baa7017 was notna888, on Sat, 5 Sep 2015 15:07:01 +0800: Added my hours
* 12a929b was Wilsen Lie, on Sat, 5 Sep 2015 13:12:36 +0800: week 6
* 0b022e1 was William Owers, on Fri, 4 Sep 2015 13:02:29 +0800: login html
* f0349e2 was notna888, on Fri, 4 Sep 2015 01:13:37 +0800: added the set of videos spreadsheet
* 0127e75 was William Owers, on Thu, 3 Sep 2015 18:55:11 +0800: code description for wilsen
* ad4e237 was Mathias Gebauer, on Wed, 2 Sep 2015 10:32:11 +0800: Minutes for weekly group meeting
* e6ac186 was nightglyde, on Tue, 1 Sep 2015 16:43:19 +0800: renamed the tests folder to avoid confusion. also added my android research from a few weeks ago
*   d5b5151 was nightglyde, on Tue, 1 Sep 2015 16:18:21 +0800: Merge branch 'master' of https://bitbucket.org/notna888/the-special-k-project
|\  
| * 0afcd67 was Mathias Gebauer, on Tue, 1 Sep 2015 15:01:07 +0800: Added mentor minutes
* | 57abf92 was nightglyde, on Tue, 1 Sep 2015 16:16:39 +0800: added instructions for running tests
|/  
* 8c75271 was nightglyde, on Tue, 1 Sep 2015 13:19:01 +0800: added karma config file and made test files karma-compatible. still need to write karma setup instructions
* da994c9 was William Owers, on Tue, 1 Sep 2015 12:28:53 +0800: added a Code Documentation for the main.js file
* 624db09 was William Owers, on Tue, 1 Sep 2015 11:35:57 +0800: Interface is solid and works and isn't broken
* 43c6869 was Reece Como, on Mon, 31 Aug 2015 22:08:59 +0800: html offline video caching spec added
* d6c6ba2 was Reece Como, on Mon, 31 Aug 2015 18:22:25 +0800: Mentor Meeting 2
* 37a5c6b was Reece Como, on Sun, 30 Aug 2015 20:01:21 +0800: Timesheets from all group members, submissions for Wk5
* e8f0be9 was Reece Como, on Sun, 30 Aug 2015 19:57:32 +0800: timesheets
* f3d9b26 was nightglyde, on Sat, 29 Aug 2015 17:48:43 +0800: added my hours for this week
* 9d9ef39 was William Owers, on Sat, 29 Aug 2015 17:26:12 +0800: deliverable A feedback from client
* 37562a2 was William Owers, on Sat, 29 Aug 2015 17:23:22 +0800: added next buttons and all vids loading
* a3f1574 was Mathias Gebauer, on Sat, 29 Aug 2015 13:17:44 +0800: App Placeholders in Deamweaver
* 4b1828e was Willium, on Sat, 29 Aug 2015 00:15:57 +0800: timesheet update
* 03a814f was Mathias Gebauer, on Fri, 28 Aug 2015 19:51:27 +0800: Updated Hours: Mathias
* 34b7842 was notna888, on Fri, 28 Aug 2015 18:02:34 +0800: Updated my time sheet, 3 hours woot
* a29e57f was notna888, on Fri, 28 Aug 2015 17:54:09 +0800: Added the thumbnails
* 46a633b was Mathias Gebauer, on Tue, 25 Aug 2015 23:51:27 +0800: added minutes for week 5
*   580028a was Willium, on Tue, 25 Aug 2015 15:48:02 +0800: Merge branch 'master' of https://bitbucket.org/notna888/the-special-k-project
|\  
| * 6994861 was nightglyde, on Tue, 25 Aug 2015 15:14:27 +0800: small edit in testing files
| * a9633b1 was nightglyde, on Tue, 25 Aug 2015 15:11:32 +0800: renamed some files for jasmine tests
* | 0f40f1c was Willium, on Tue, 25 Aug 2015 15:47:23 +0800: added client meeting minutes
|/  
*   34b7838 was William Owers, on Sun, 23 Aug 2015 23:25:14 +0800: Merge branch 'master' of https://bitbucket.org/notna888/the-special-k-project
|\  
| * f871fc1 was Reece Como, on Sun, 23 Aug 2015 19:20:12 +0800: BkdHrs (LG,RN), Timesheet/Budget/Targets (Group), Submissions
* | 803b63a was William Owers, on Sun, 23 Aug 2015 23:24:43 +0800: Made a lot of code changes that work, mass imports things, more expandable and scaleable
|/  
* 5d0f220 was notna888, on Sat, 22 Aug 2015 15:41:19 +0800: Updated my hours, sorry for lateness
* 1ecbebc was Mathias Gebauer, on Sat, 22 Aug 2015 10:38:59 +0800: Added DelA Final and updated hours
* ffb1498 was Will Owers, on Fri, 21 Aug 2015 23:46:11 +0800: made my time changes
* 43ddd0f was Wilsen Lie, on Fri, 21 Aug 2015 22:50:11 +0800: updateg
* 63ab532 was Mathias Gebauer, on Thu, 20 Aug 2015 21:13:01 +0800: Read team notices - Mathias
* 2964e0c was William Owers, on Thu, 20 Aug 2015 00:29:40 +0800: edited a few things nothing serious
*   59ca086 was William Owers, on Wed, 19 Aug 2015 17:29:46 +0800: Merge branch 'master' of https://bitbucket.org/notna888/the-special-k-project
|\  
| * 18d4cee was Mathias Gebauer, on Wed, 19 Aug 2015 12:02:46 +0800: Added minutes for meeting 3 and first mock for GUI Design
| * 3bf358c was nightglyde, on Tue, 18 Aug 2015 15:48:29 +0800: started testing. run tests with testing/RunTests.html
* |   65f4cbf was William Owers, on Sun, 16 Aug 2015 12:34:53 +0800: Merge branch 'master' of https://bitbucket.org/notna888/the-special-k-project
|\ \  
| |/  
| * 3948e7e was Reece Como, on Sat, 15 Aug 2015 18:13:30 +0800: revised for naming conventions
| * 20c88b3 was Reece Como, on Sat, 15 Aug 2015 17:55:21 +0800: housekeeping/timesheets
| * e90da6e was Mathias Gebauer, on Sat, 15 Aug 2015 13:06:26 +0800: Updated Timesheet (per person and general tasks)
* | 13c8759 was William Owers, on Sun, 16 Aug 2015 12:20:54 +0800: a commit
|/  
* 9d4e877 was Mathias Gebauer, on Fri, 14 Aug 2015 18:22:15 +0800: Updated hours
* f7ea0d4 was notna888, on Fri, 14 Aug 2015 15:27:51 +0800: added client minutes and updated hours
* e5e6566 was William Owers, on Fri, 14 Aug 2015 14:25:29 +0800: Added the drag and drop faces to shade images
* 2c3a5e8 was Willium, on Fri, 14 Aug 2015 11:04:14 +0800: added horus
* bc95dc4 was Wilsen Lie, on Thu, 13 Aug 2015 23:00:50 +0800: My booked hours has been updated
* b2bbba4 was Willium, on Thu, 13 Aug 2015 18:52:13 +0800: fixed the image now drawn with CANVAS for shading
* 43ffafe was Mathias Gebauer, on Thu, 13 Aug 2015 16:12:58 +0800: Added minutes for meeting 2 and mentor meeting 1
* e1c7fa5 was nightglyde, on Thu, 13 Aug 2015 13:31:37 +0800: Updating my booked hours. (I'm probably going to add some more hours before the end of the week.)
* 63a0bf2 was Willium, on Thu, 13 Aug 2015 10:29:10 +0800: added some activities to the grou K timesheet pls add more things
* 1cf0215 was notna888, on Wed, 12 Aug 2015 23:41:18 +0800: Made the sad face sad
* 241501a was William Owers, on Wed, 12 Aug 2015 00:43:15 +0800: Started the basics for the example thing we will have to show
* fd0ab10 was notna888, on Wed, 12 Aug 2015 00:03:57 +0800: uploaded converted assets
* cf8c21c was nightglyde, on Tue, 11 Aug 2015 18:33:19 +0800: deliverable A thing
* 923ee00 was William Owers, on Tue, 11 Aug 2015 10:02:10 +0000: fixed typo
* 691f825 was William Owers, on Tue, 11 Aug 2015 10:00:30 +0000: bnanas
* 51ee86c was Reece Como, on Sat, 8 Aug 2015 13:29:04 +0800: formatting update, and group hours
* 1ce1372 was nightglyde, on Fri, 7 Aug 2015 20:59:15 +0800: Added booked hours for week 2
* 95d38be was Reece Como, on Fri, 7 Aug 2015 11:38:45 +0000: added gitignore
* 4959055 was Mathias Gebauer, on Fri, 7 Aug 2015 18:48:33 +0800: added Mathias time sheet and minutes for first meeting
*   6a4e451 was notna888, on Fri, 7 Aug 2015 14:39:46 +0800: Merge branch 'master' of https://bitbucket.org/notna888/the-special-k-project
|\  
| * 1cf189b was Will Owers, on Fri, 7 Aug 2015 14:24:01 +0800: added my hoursspent on things
| * 7c8a37a was Wilsen Lie, on Fri, 7 Aug 2015 08:05:50 +0800: Wilsen booked hours has been updated
| * 6d417d3 was Wilsen Lie, on Thu, 6 Aug 2015 14:37:56 +0800: name added
| * 40d25d5 was Will Owers, on Tue, 4 Aug 2015 18:02:16 +0800: Added the important things for next week YAY
| * df73639 was nightglyde, on Mon, 3 Aug 2015 17:35:27 +0800: added my student number
| * 5862e6f was nightglyde, on Mon, 3 Aug 2015 17:28:52 +0800: adding my skype username
* | 36073c2 was notna888, on Fri, 7 Aug 2015 14:37:25 +0800: Updated my booked hours
|/  
* 432f3b9 was notna888, on Mon, 3 Aug 2015 15:59:47 +0800: Added student number, made clear what skype was mine
* 9529852 was Reece, on Sat, 1 Aug 2015 09:46:39 +0800: reeces details added
* 19de4eb was nightglyde, on Fri, 31 Jul 2015 16:56:25 +0800: Adding name to the contributors
* 9ab9d12 was notna888, on Thu, 30 Jul 2015 12:05:20 +0800: Added my skype details
* a220832 was Willium, on Thu, 30 Jul 2015 11:25:38 +0800: Added a skype text file for skype deets and an Instuctions for you lovely people <3
* 8cadb20 was Willium, on Thu, 30 Jul 2015 11:14:29 +0800: Folders and files for book and time keeping for initial start for week 2.
* 7fbfa4f was Wilsen Lie, on Thu, 30 Jul 2015 00:07:47 +0800: Initial commit with contributors
* 28ab84b was Anton Savill, on Wed, 29 Jul 2015 21:54:32 +0800: Initial commit from the other repo